<svg width="12" height="25" viewBox="0 0 12 25" fill="none" xmlns="http://www.w3.org/2000/svg">
<path d="M0 8.26842H2.57101V7.09509V5.94634V5.75455C2.57101 4.64908 2.5984 2.93973 3.39964 1.88147C4.24295 0.761241 5.40029 0 7.39116 0C10.6333 0 12 0.464219 12 0.464219L11.3572 4.29403C11.3572 4.29403 10.287 3.98324 9.28714 3.98324C8.28632 3.98324 7.39116 4.34222 7.39116 5.34836V5.75455V7.09509V8.26842H11.4893L11.2046 12.0068H7.39116V25H2.57101V12.0068H0V8.26842Z" fill="white"/>
</svg>
